<?xml version="1.0" standalone="no"?>
<!DOCTYPE svg PUBLIC "-//W3C//DTD SVG 1.1//EN" "http://www.w3.org/Graphics/SVG/1.1/DTD/svg11.dtd">
<svg width="963px" height="3150px" version="1.1" xmlns="http://www.w3.org/2000/svg">

<!-- This file is a systemd-analyze SVG file. It is best rendered in a   -->
<!-- browser such as Chrome, Chromium or Firefox. Other applications     -->
<!-- that render these files properly but much slower are ImageMagick,   -->
<!-- gimp, inkscape, etc. To display the files on your system, just      -->
<!-- point your browser to this file.                                    -->

<!-- This plot was generated by systemd-analyze version 247.3-7+deb11u1  -->

<defs>
  <style type="text/css">
    <![CDATA[
      rect       { stroke-width: 1; stroke-opacity: 0; }
      rect.background   { fill: rgb(255,255,255); }
      rect.activating   { fill: rgb(255,0,0); fill-opacity: 0.7; }
      rect.active       { fill: rgb(200,150,150); fill-opacity: 0.7; }
      rect.deactivating { fill: rgb(150,100,100); fill-opacity: 0.7; }
      rect.kernel       { fill: rgb(150,150,150); fill-opacity: 0.7; }
      rect.initrd       { fill: rgb(150,150,150); fill-opacity: 0.7; }
      rect.firmware     { fill: rgb(150,150,150); fill-opacity: 0.7; }
      rect.loader       { fill: rgb(150,150,150); fill-opacity: 0.7; }
      rect.userspace    { fill: rgb(150,150,150); fill-opacity: 0.7; }
      rect.security     { fill: rgb(144,238,144); fill-opacity: 0.7; }
      rect.generators   { fill: rgb(102,204,255); fill-opacity: 0.7; }
      rect.unitsload    { fill: rgb( 82,184,255); fill-opacity: 0.7; }
      rect.box   { fill: rgb(240,240,240); stroke: rgb(192,192,192); }
      line       { stroke: rgb(64,64,64); stroke-width: 1; }
//    line.sec1  { }
      line.sec5  { stroke-width: 2; }
      line.sec01 { stroke: rgb(224,224,224); stroke-width: 1; }
      text       { font-family: Verdana, Helvetica; font-size: 14px; }
      text.left  { font-family: Verdana, Helvetica; font-size: 14px; text-anchor: start; }
      text.right { font-family: Verdana, Helvetica; font-size: 14px; text-anchor: end; }
      text.sec   { font-size: 10px; }
    ]]>
   </style>
</defs>

<rect class="background" width="100%" height="100%" />
<text x="20" y="50">Startup finished in 1.364s (kernel) + 5.632s (userspace) = 6.997s 
graphical.target reached after 5.625s in userspace</text><text x="20" y="30">Debian GNU/Linux 11 (bullseye) bullseye (Linux 5.10.0-21-amd64 #1 SMP Debian 5.10.162-1 (2023-01-21)) x86-64 oracle</text><g transform="translate(20.000,100)">
<rect class="box" x="0" y="0" width="699.712" height="2900.000" />
  <line class="sec5" x1="0.000" y1="0" x2="0.000" y2="2900.000" />
  <text class="sec" x="0.000" y="-5.000" >0.0s</text>
  <line class="sec01" x1="10.000" y1="0" x2="10.000" y2="2900.000" />
  <line class="sec01" x1="20.000" y1="0" x2="20.000" y2="2900.000" />
  <line class="sec01" x1="30.000" y1="0" x2="30.000" y2="2900.000" />
  <line class="sec01" x1="40.000" y1="0" x2="40.000" y2="2900.000" />
  <line class="sec01" x1="50.000" y1="0" x2="50.000" y2="2900.000" />
  <line class="sec01" x1="60.000" y1="0" x2="60.000" y2="2900.000" />
  <line class="sec01" x1="70.000" y1="0" x2="70.000" y2="2900.000" />
  <line class="sec01" x1="80.000" y1="0" x2="80.000" y2="2900.000" />
  <line class="sec01" x1="90.000" y1="0" x2="90.000" y2="2900.000" />
  <line class="sec1" x1="100.000" y1="0" x2="100.000" y2="2900.000" />
  <text class="sec" x="100.000" y="-5.000" >1.0s</text>
  <line class="sec01" x1="110.000" y1="0" x2="110.000" y2="2900.000" />
  <line class="sec01" x1="120.000" y1="0" x2="120.000" y2="2900.000" />
  <line class="sec01" x1="130.000" y1="0" x2="130.000" y2="2900.000" />
  <line class="sec01" x1="140.000" y1="0" x2="140.000" y2="2900.000" />
  <line class="sec01" x1="150.000" y1="0" x2="150.000" y2="2900.000" />
  <line class="sec01" x1="160.000" y1="0" x2="160.000" y2="2900.000" />
  <line class="sec01" x1="170.000" y1="0" x2="170.000" y2="2900.000" />
  <line class="sec01" x1="180.000" y1="0" x2="180.000" y2="2900.000" />
  <line class="sec01" x1="190.000" y1="0" x2="190.000" y2="2900.000" />
  <line class="sec1" x1="200.000" y1="0" x2="200.000" y2="2900.000" />
  <text class="sec" x="200.000" y="-5.000" >2.0s</text>
  <line class="sec01" x1="210.000" y1="0" x2="210.000" y2="2900.000" />
  <line class="sec01" x1="220.000" y1="0" x2="220.000" y2="2900.000" />
  <line class="sec01" x1="230.000" y1="0" x2="230.000" y2="2900.000" />
  <line class="sec01" x1="240.000" y1="0" x2="240.000" y2="2900.000" />
  <line class="sec01" x1="250.000" y1="0" x2="250.000" y2="2900.000" />
  <line class="sec01" x1="260.000" y1="0" x2="260.000" y2="2900.000" />
  <line class="sec01" x1="270.000" y1="0" x2="270.000" y2="2900.000" />
  <line class="sec01" x1="280.000" y1="0" x2="280.000" y2="2900.000" />
  <line class="sec01" x1="290.000" y1="0" x2="290.000" y2="2900.000" />
  <line class="sec1" x1="300.000" y1="0" x2="300.000" y2="2900.000" />
  <text class="sec" x="300.000" y="-5.000" >3.0s</text>
  <line class="sec01" x1="310.000" y1="0" x2="310.000" y2="2900.000" />
  <line class="sec01" x1="320.000" y1="0" x2="320.000" y2="2900.000" />
  <line class="sec01" x1="330.000" y1="0" x2="330.000" y2="2900.000" />
  <line class="sec01" x1="340.000" y1="0" x2="340.000" y2="2900.000" />
  <line class="sec01" x1="350.000" y1="0" x2="350.000" y2="2900.000" />
  <line class="sec01" x1="360.000" y1="0" x2="360.000" y2="2900.000" />
  <line class="sec01" x1="370.000" y1="0" x2="370.000" y2="2900.000" />
  <line class="sec01" x1="380.000" y1="0" x2="380.000" y2="2900.000" />
  <line class="sec01" x1="390.000" y1="0" x2="390.000" y2="2900.000" />
  <line class="sec1" x1="400.000" y1="0" x2="400.000" y2="2900.000" />
  <text class="sec" x="400.000" y="-5.000" >4.0s</text>
  <line class="sec01" x1="410.000" y1="0" x2="410.000" y2="2900.000" />
  <line class="sec01" x1="420.000" y1="0" x2="420.000" y2="2900.000" />
  <line class="sec01" x1="430.000" y1="0" x2="430.000" y2="2900.000" />
  <line class="sec01" x1="440.000" y1="0" x2="440.000" y2="2900.000" />
  <line class="sec01" x1="450.000" y1="0" x2="450.000" y2="2900.000" />
  <line class="sec01" x1="460.000" y1="0" x2="460.000" y2="2900.000" />
  <line class="sec01" x1="470.000" y1="0" x2="470.000" y2="2900.000" />
  <line class="sec01" x1="480.000" y1="0" x2="480.000" y2="2900.000" />
  <line class="sec01" x1="490.000" y1="0" x2="490.000" y2="2900.000" />
  <line class="sec5" x1="500.000" y1="0" x2="500.000" y2="2900.000" />
  <text class="sec" x="500.000" y="-5.000" >5.0s</text>
  <line class="sec01" x1="510.000" y1="0" x2="510.000" y2="2900.000" />
  <line class="sec01" x1="520.000" y1="0" x2="520.000" y2="2900.000" />
  <line class="sec01" x1="530.000" y1="0" x2="530.000" y2="2900.000" />
  <line class="sec01" x1="540.000" y1="0" x2="540.000" y2="2900.000" />
  <line class="sec01" x1="550.000" y1="0" x2="550.000" y2="2900.000" />
  <line class="sec01" x1="560.000" y1="0" x2="560.000" y2="2900.000" />
  <line class="sec01" x1="570.000" y1="0" x2="570.000" y2="2900.000" />
  <line class="sec01" x1="580.000" y1="0" x2="580.000" y2="2900.000" />
  <line class="sec01" x1="590.000" y1="0" x2="590.000" y2="2900.000" />
  <line class="sec1" x1="600.000" y1="0" x2="600.000" y2="2900.000" />
  <text class="sec" x="600.000" y="-5.000" >6.0s</text>
  <line class="sec01" x1="610.000" y1="0" x2="610.000" y2="2900.000" />
  <line class="sec01" x1="620.000" y1="0" x2="620.000" y2="2900.000" />
  <line class="sec01" x1="630.000" y1="0" x2="630.000" y2="2900.000" />
  <line class="sec01" x1="640.000" y1="0" x2="640.000" y2="2900.000" />
  <line class="sec01" x1="650.000" y1="0" x2="650.000" y2="2900.000" />
  <line class="sec01" x1="660.000" y1="0" x2="660.000" y2="2900.000" />
  <line class="sec01" x1="670.000" y1="0" x2="670.000" y2="2900.000" />
  <line class="sec01" x1="680.000" y1="0" x2="680.000" y2="2900.000" />
  <line class="sec01" x1="690.000" y1="0" x2="690.000" y2="2900.000" />
  <rect class="kernel" x="0.000" y="0.000" width="136.466" height="19.000" />
  <text class="left" x="5.000" y="14.000">kernel</text>
  <rect class="active" x="136.466" y="20.000" width="563.246" height="19.000" />
  <rect class="security" x="136.782" y="20.000" width="0.112" height="19.000" />
  <rect class="generators" x="141.968" y="20.000" width="2.581" height="19.000" />
  <rect class="unitsload" x="144.550" y="20.000" width="0.590" height="19.000" />
  <text class="left" x="141.466" y="34.000">systemd</text>
  <rect class="activating" x="145.147" y="40.000" width="0.000" height="19.000" />
  <rect class="active" x="145.147" y="40.000" width="554.565" height="19.000" />
  <rect class="deactivating" x="699.712" y="40.000" width="0.000" height="19.000" />
  <text class="left" x="150.147" y="54.000">init.scope</text>
  <rect class="activating" x="145.147" y="60.000" width="0.000" height="19.000" />
  <rect class="active" x="145.147" y="60.000" width="554.565" height="19.000" />
  <rect class="deactivating" x="699.712" y="60.000" width="0.000" height="19.000" />
  <text class="left" x="150.147" y="74.000">-.slice</text>
  <rect class="activating" x="145.148" y="80.000" width="0.000" height="19.000" />
  <rect class="active" x="145.148" y="80.000" width="554.564" height="19.000" />
  <rect class="deactivating" x="699.712" y="80.000" width="0.000" height="19.000" />
  <text class="left" x="150.148" y="94.000">-.mount</text>
  <rect class="activating" x="145.149" y="100.000" width="0.000" height="19.000" />
  <rect class="active" x="145.149" y="100.000" width="554.563" height="19.000" />
  <rect class="deactivating" x="699.712" y="100.000" width="0.000" height="19.000" />
  <text class="left" x="150.149" y="114.000">system.slice</text>
  <rect class="activating" x="149.957" y="120.000" width="0.000" height="19.000" />
  <rect class="active" x="149.957" y="120.000" width="549.755" height="19.000" />
  <rect class="deactivating" x="699.712" y="120.000" width="0.000" height="19.000" />
  <text class="left" x="154.957" y="134.000">system-getty.slice</text>
  <rect class="activating" x="150.066" y="140.000" width="0.000" height="19.000" />
  <rect class="active" x="150.066" y="140.000" width="549.646" height="19.000" />
  <rect class="deactivating" x="699.712" y="140.000" width="0.000" height="19.000" />
  <text class="left" x="155.066" y="154.000">system-modprobe.slice</text>
  <rect class="activating" x="150.177" y="160.000" width="0.000" height="19.000" />
  <rect class="active" x="150.177" y="160.000" width="549.535" height="19.000" />
  <rect class="deactivating" x="699.712" y="160.000" width="0.000" height="19.000" />
  <text class="left" x="155.177" y="174.000">system-systemd\x2dfsck.slice</text>
  <rect class="activating" x="150.278" y="180.000" width="0.000" height="19.000" />
  <rect class="active" x="150.278" y="180.000" width="549.434" height="19.000" />
  <rect class="deactivating" x="699.712" y="180.000" width="0.000" height="19.000" />
  <text class="left" x="155.278" y="194.000">user.slice</text>
  <rect class="activating" x="150.374" y="200.000" width="0.000" height="19.000" />
  <rect class="active" x="150.374" y="200.000" width="549.338" height="19.000" />
  <rect class="deactivating" x="699.712" y="200.000" width="0.000" height="19.000" />
  <text class="left" x="155.374" y="214.000">systemd-ask-password-console.path</text>
  <rect class="activating" x="150.472" y="220.000" width="0.000" height="19.000" />
  <rect class="active" x="150.472" y="220.000" width="549.240" height="19.000" />
  <rect class="deactivating" x="699.712" y="220.000" width="0.000" height="19.000" />
  <text class="left" x="155.472" y="234.000">systemd-ask-password-wall.path</text>
  <rect class="activating" x="150.585" y="240.000" width="0.000" height="19.000" />
  <rect class="active" x="150.585" y="240.000" width="549.127" height="19.000" />
  <rect class="deactivating" x="699.712" y="240.000" width="0.000" height="19.000" />
  <text class="left" x="155.585" y="254.000">proc-sys-fs-binfmt_misc.automount</text>
  <rect class="activating" x="150.686" y="260.000" width="0.000" height="19.000" />
  <rect class="active" x="150.686" y="260.000" width="549.026" height="19.000" />
  <rect class="deactivating" x="699.712" y="260.000" width="0.000" height="19.000" />
  <text class="left" x="155.686" y="274.000">cryptsetup.target</text>
  <rect class="activating" x="150.786" y="280.000" width="0.000" height="19.000" />
  <rect class="active" x="150.786" y="280.000" width="548.926" height="19.000" />
  <rect class="deactivating" x="699.712" y="280.000" width="0.000" height="19.000" />
  <text class="left" x="155.786" y="294.000">paths.target</text>
  <rect class="activating" x="150.883" y="300.000" width="0.000" height="19.000" />
  <rect class="active" x="150.883" y="300.000" width="548.829" height="19.000" />
  <rect class="deactivating" x="699.712" y="300.000" width="0.000" height="19.000" />
  <text class="left" x="155.883" y="314.000">remote-fs.target</text>
  <rect class="activating" x="150.983" y="320.000" width="0.000" height="19.000" />
  <rect class="active" x="150.983" y="320.000" width="548.729" height="19.000" />
  <rect class="deactivating" x="699.712" y="320.000" width="0.000" height="19.000" />
  <text class="left" x="155.983" y="334.000">slices.target</text>
  <rect class="activating" x="151.087" y="340.000" width="0.000" height="19.000" />
  <rect class="active" x="151.087" y="340.000" width="548.625" height="19.000" />
  <rect class="deactivating" x="699.712" y="340.000" width="0.000" height="19.000" />
  <text class="left" x="156.087" y="354.000">swap.target</text>
  <rect class="activating" x="151.191" y="360.000" width="0.000" height="19.000" />
  <rect class="active" x="151.191" y="360.000" width="548.521" height="19.000" />
  <rect class="deactivating" x="699.712" y="360.000" width="0.000" height="19.000" />
  <text class="left" x="156.191" y="374.000">time-set.target</text>
  <rect class="activating" x="151.294" y="380.000" width="0.000" height="19.000" />
  <rect class="active" x="151.294" y="380.000" width="548.418" height="19.000" />
  <rect class="deactivating" x="699.712" y="380.000" width="0.000" height="19.000" />
  <text class="left" x="156.294" y="394.000">time-sync.target</text>
  <rect class="activating" x="151.400" y="400.000" width="0.000" height="19.000" />
  <rect class="active" x="151.400" y="400.000" width="548.312" height="19.000" />
  <rect class="deactivating" x="699.712" y="400.000" width="0.000" height="19.000" />
  <text class="left" x="156.400" y="414.000">syslog.socket</text>
  <rect class="activating" x="151.514" y="420.000" width="0.000" height="19.000" />
  <rect class="active" x="151.514" y="420.000" width="548.198" height="19.000" />
  <rect class="deactivating" x="699.712" y="420.000" width="0.000" height="19.000" />
  <text class="left" x="156.514" y="434.000">systemd-fsckd.socket</text>
  <rect class="activating" x="151.722" y="440.000" width="0.000" height="19.000" />
  <rect class="active" x="151.722" y="440.000" width="547.990" height="19.000" />
  <rect class="deactivating" x="699.712" y="440.000" width="0.000" height="19.000" />
  <text class="left" x="156.722" y="454.000">systemd-initctl.socket</text>
  <rect class="activating" x="151.828" y="460.000" width="0.000" height="19.000" />
  <rect class="active" x="151.828" y="460.000" width="547.884" height="19.000" />
  <rect class="deactivating" x="699.712" y="460.000" width="0.000" height="19.000" />
  <text class="left" x="156.828" y="474.000">systemd-journald-audit.socket</text>
  <rect class="activating" x="151.923" y="480.000" width="0.000" height="19.000" />
  <rect class="active" x="151.923" y="480.000" width="547.789" height="19.000" />
  <rect class="deactivating" x="699.712" y="480.000" width="0.000" height="19.000" />
  <text class="left" x="156.923" y="494.000">systemd-journald-dev-log.socket</text>
  <rect class="activating" x="152.018" y="500.000" width="0.000" height="19.000" />
  <rect class="active" x="152.018" y="500.000" width="547.694" height="19.000" />
  <rect class="deactivating" x="699.712" y="500.000" width="0.000" height="19.000" />
  <text class="left" x="157.018" y="514.000">systemd-journald.socket</text>
  <rect class="activating" x="152.193" y="520.000" width="0.000" height="19.000" />
  <rect class="active" x="152.193" y="520.000" width="547.519" height="19.000" />
  <rect class="deactivating" x="699.712" y="520.000" width="0.000" height="19.000" />
  <text class="left" x="157.193" y="534.000">systemd-udevd-control.socket</text>
  <rect class="activating" x="152.289" y="540.000" width="0.000" height="19.000" />
  <rect class="active" x="152.289" y="540.000" width="547.423" height="19.000" />
  <rect class="deactivating" x="699.712" y="540.000" width="0.000" height="19.000" />
  <text class="left" x="157.289" y="554.000">systemd-udevd-kernel.socket</text>
  <rect class="activating" x="152.424" y="560.000" width="4.397" height="19.000" />
  <rect class="active" x="156.822" y="560.000" width="542.890" height="19.000" />
  <rect class="deactivating" x="699.712" y="560.000" width="0.000" height="19.000" />
  <text class="left" x="157.424" y="574.000">dev-hugepages.mount (43ms)</text>
  <rect class="activating" x="152.657" y="580.000" width="4.331" height="19.000" />
  <rect class="active" x="156.988" y="580.000" width="542.724" height="19.000" />
  <rect class="deactivating" x="699.712" y="580.000" width="0.000" height="19.000" />
  <text class="left" x="157.657" y="594.000">dev-mqueue.mount (43ms)</text>
  <rect class="activating" x="152.868" y="600.000" width="4.408" height="19.000" />
  <rect class="active" x="157.276" y="600.000" width="542.436" height="19.000" />
  <rect class="deactivating" x="699.712" y="600.000" width="0.000" height="19.000" />
  <text class="left" x="157.868" y="614.000">sys-kernel-debug.mount (44ms)</text>
  <rect class="activating" x="153.074" y="620.000" width="4.375" height="19.000" />
  <rect class="active" x="157.449" y="620.000" width="542.263" height="19.000" />
  <rect class="deactivating" x="699.712" y="620.000" width="0.000" height="19.000" />
  <text class="left" x="158.074" y="634.000">sys-kernel-tracing.mount (43ms)</text>
  <rect class="activating" x="153.332" y="640.000" width="9.244" height="19.000" />
  <rect class="active" x="162.576" y="640.000" width="537.136" height="19.000" />
  <rect class="deactivating" x="699.712" y="640.000" width="0.000" height="19.000" />
  <text class="left" x="158.332" y="654.000">keyboard-setup.service (92ms)</text>
  <rect class="activating" x="153.521" y="660.000" width="4.046" height="19.000" />
  <rect class="active" x="157.567" y="660.000" width="542.145" height="19.000" />
  <rect class="deactivating" x="699.712" y="660.000" width="0.000" height="19.000" />
  <text class="left" x="158.521" y="674.000">kmod-static-nodes.service (40ms)</text>
  <rect class="activating" x="153.766" y="680.000" width="4.121" height="19.000" />
  <rect class="active" x="157.887" y="680.000" width="0.000" height="19.000" />
  <rect class="deactivating" x="157.887" y="680.000" width="0.000" height="19.000" />
  <text class="left" x="158.766" y="694.000">modprobe@configfs.service (41ms)</text>
  <rect class="activating" x="154.103" y="700.000" width="4.094" height="19.000" />
  <rect class="active" x="158.197" y="700.000" width="0.000" height="19.000" />
  <rect class="deactivating" x="158.197" y="700.000" width="0.000" height="19.000" />
  <text class="left" x="159.103" y="714.000">modprobe@drm.service (40ms)</text>
  <rect class="activating" x="154.347" y="720.000" width="4.102" height="19.000" />
  <rect class="active" x="158.449" y="720.000" width="0.000" height="19.000" />
  <rect class="deactivating" x="158.449" y="720.000" width="0.000" height="19.000" />
  <text class="left" x="159.347" y="734.000">modprobe@fuse.service (41ms)</text>
  <rect class="activating" x="154.958" y="740.000" width="3.819" height="19.000" />
  <rect class="active" x="158.777" y="740.000" width="540.935" height="19.000" />
  <rect class="deactivating" x="699.712" y="740.000" width="0.000" height="19.000" />
  <text class="left" x="159.958" y="754.000">systemd-journald.service (38ms)</text>
  <rect class="activating" x="155.313" y="760.000" width="3.319" height="19.000" />
  <rect class="active" x="158.632" y="760.000" width="541.080" height="19.000" />
  <rect class="deactivating" x="699.712" y="760.000" width="0.000" height="19.000" />
  <text class="left" x="160.313" y="774.000">systemd-modules-load.service (33ms)</text>
  <rect class="activating" x="156.320" y="780.000" width="2.605" height="19.000" />
  <rect class="active" x="158.925" y="780.000" width="540.787" height="19.000" />
  <rect class="deactivating" x="699.712" y="780.000" width="0.000" height="19.000" />
  <text class="left" x="161.320" y="794.000">systemd-remount-fs.service (26ms)</text>
  <rect class="activating" x="156.560" y="800.000" width="4.949" height="19.000" />
  <rect class="active" x="161.509" y="800.000" width="538.203" height="19.000" />
  <rect class="deactivating" x="699.712" y="800.000" width="0.000" height="19.000" />
  <text class="left" x="161.560" y="814.000">systemd-udev-trigger.service (49ms)</text>
  <rect class="activating" x="156.773" y="820.000" width="19.145" height="19.000" />
  <rect class="active" x="175.917" y="820.000" width="523.795" height="19.000" />
  <rect class="deactivating" x="699.712" y="820.000" width="0.000" height="19.000" />
  <text class="left" x="161.773" y="834.000">dev-sda2.device (191ms)</text>
  <rect class="activating" x="159.100" y="840.000" width="1.286" height="19.000" />
  <rect class="active" x="160.386" y="840.000" width="539.326" height="19.000" />
  <rect class="deactivating" x="699.712" y="840.000" width="0.000" height="19.000" />
  <text class="left" x="164.100" y="854.000">sys-fs-fuse-connections.mount (12ms)</text>
  <rect class="activating" x="159.238" y="860.000" width="1.244" height="19.000" />
  <rect class="active" x="160.482" y="860.000" width="539.230" height="19.000" />
  <rect class="deactivating" x="699.712" y="860.000" width="0.000" height="19.000" />
  <text class="left" x="164.238" y="874.000">sys-kernel-config.mount (12ms)</text>
  <rect class="activating" x="159.451" y="880.000" width="9.585" height="19.000" />
  <rect class="active" x="169.036" y="880.000" width="530.676" height="19.000" />
  <rect class="deactivating" x="699.712" y="880.000" width="0.000" height="19.000" />
  <text class="left" x="164.451" y="894.000">systemd-journal-flush.service (95ms)</text>
  <rect class="activating" x="159.607" y="900.000" width="1.973" height="19.000" />
  <rect class="active" x="161.581" y="900.000" width="538.131" height="19.000" />
  <rect class="deactivating" x="699.712" y="900.000" width="0.000" height="19.000" />
  <text class="left" x="164.607" y="914.000">systemd-random-seed.service (19ms)</text>
  <rect class="activating" x="159.764" y="920.000" width="2.734" height="19.000" />
  <rect class="active" x="162.498" y="920.000" width="537.214" height="19.000" />
  <rect class="deactivating" x="699.712" y="920.000" width="0.000" height="19.000" />
  <text class="left" x="164.764" y="934.000">systemd-sysctl.service (27ms)</text>
  <rect class="activating" x="160.127" y="940.000" width="2.297" height="19.000" />
  <rect class="active" x="162.424" y="940.000" width="537.288" height="19.000" />
  <rect class="deactivating" x="699.712" y="940.000" width="0.000" height="19.000" />
  <text class="left" x="165.127" y="954.000">systemd-sysusers.service (22ms)</text>
  <rect class="activating" x="161.725" y="960.000" width="0.916" height="19.000" />
  <rect class="active" x="162.641" y="960.000" width="537.071" height="19.000" />
  <rect class="deactivating" x="699.712" y="960.000" width="0.000" height="19.000" />
  <text class="left" x="166.725" y="974.000">ifupdown-pre.service (9ms)</text>
  <rect class="activating" x="162.743" y="980.000" width="1.043" height="19.000" />
  <rect class="active" x="163.786" y="980.000" width="535.926" height="19.000" />
  <rect class="deactivating" x="699.712" y="980.000" width="0.000" height="19.000" />
  <text class="left" x="167.743" y="994.000">systemd-tmpfiles-setup-dev.service (10ms)</text>
  <rect class="activating" x="163.984" y="1000.000" width="0.000" height="19.000" />
  <rect class="active" x="163.984" y="1000.000" width="535.728" height="19.000" />
  <rect class="deactivating" x="699.712" y="1000.000" width="0.000" height="19.000" />
  <text class="left" x="168.984" y="1014.000">local-fs-pre.target</text>
  <rect class="activating" x="164.136" y="1020.000" width="3.251" height="19.000" />
  <rect class="active" x="167.387" y="1020.000" width="532.325" height="19.000" />
  <rect class="deactivating" x="699.712" y="1020.000" width="0.000" height="19.000" />
  <text class="left" x="169.136" y="1034.000">systemd-udevd.service (32ms)</text>
  <rect class="activating" x="167.717" y="1040.000" width="0.000" height="19.000" />
  <rect class="active" x="167.717" y="1040.000" width="531.995" height="19.000" />
  <rect class="deactivating" x="699.712" y="1040.000" width="0.000" height="19.000" />
  <text class="left" x="172.717" y="1054.000">sys-module-configfs.device</text>
  <rect class="activating" x="167.839" y="1060.000" width="0.000" height="19.000" />
  <rect class="active" x="167.839" y="1060.000" width="531.873" height="19.000" />
  <rect class="deactivating" x="699.712" y="1060.000" width="0.000" height="19.000" />
  <text class="left" x="172.839" y="1074.000">sys-module-fuse.device</text>
  <rect class="activating" x="174.989" y="1080.000" width="0.000" height="19.000" />
  <rect class="active" x="174.989" y="1080.000" width="524.723" height="19.000" />
  <rect class="deactivating" x="699.712" y="1080.000" width="0.000" height="19.000" />
  <text class="left" x="179.989" y="1094.000">sys-subsystem-net-devices-enp0s3.device</text>
  <rect class="activating" x="175.210" y="1100.000" width="0.000" height="19.000" />
  <rect class="active" x="175.210" y="1100.000" width="524.502" height="19.000" />
  <rect class="deactivating" x="699.712" y="1100.000" width="0.000" height="19.000" />
  <text class="left" x="180.210" y="1114.000">sys-devices-pci0000:00-0000:00:03.0-virtio0-net-enp0s3.device</text>
  <rect class="activating" x="175.313" y="1120.000" width="0.000" height="19.000" />
  <rect class="active" x="175.313" y="1120.000" width="524.399" height="19.000" />
  <rect class="deactivating" x="699.712" y="1120.000" width="0.000" height="19.000" />
  <text class="left" x="180.313" y="1134.000">dev-disk-by\x2dpath-pci\x2d0000:00:0d.0\x2data\x2d1.device</text>
  <rect class="activating" x="175.313" y="1140.000" width="0.000" height="19.000" />
  <rect class="active" x="175.313" y="1140.000" width="524.399" height="19.000" />
  <rect class="deactivating" x="699.712" y="1140.000" width="0.000" height="19.000" />
  <text class="left" x="180.313" y="1154.000">dev-disk-by\x2dpath-pci\x2d0000:00:0d.0\x2data\x2d1.0.device</text>
  <rect class="activating" x="175.313" y="1160.000" width="0.000" height="19.000" />
  <rect class="active" x="175.313" y="1160.000" width="524.399" height="19.000" />
  <rect class="deactivating" x="699.712" y="1160.000" width="0.000" height="19.000" />
  <text class="left" x="180.313" y="1174.000">dev-disk-by\x2did-ata\x2dVBOX_HARDDISK_VB3695c8db\x2df8569cee.device</text>
  <rect class="activating" x="175.313" y="1180.000" width="0.000" height="19.000" />
  <rect class="active" x="175.313" y="1180.000" width="524.399" height="19.000" />
  <rect class="deactivating" x="699.712" y="1180.000" width="0.000" height="19.000" />
  <text class="left" x="180.313" y="1194.000">dev-sda.device</text>
  <rect class="activating" x="175.314" y="1200.000" width="0.000" height="19.000" />
  <rect class="active" x="175.314" y="1200.000" width="524.398" height="19.000" />
  <rect class="deactivating" x="699.712" y="1200.000" width="0.000" height="19.000" />
  <text class="left" x="180.314" y="1214.000">sys-devices-pci0000:00-0000:00:0d.0-ata3-host2-target2:0:0-2:0:0:0-block-sda.device</text>
  <rect class="activating" x="175.916" y="1220.000" width="0.000" height="19.000" />
  <rect class="active" x="175.916" y="1220.000" width="523.796" height="19.000" />
  <rect class="deactivating" x="699.712" y="1220.000" width="0.000" height="19.000" />
  <text class="left" x="180.916" y="1234.000">dev-disk-by\x2dpath-pci\x2d0000:00:0d.0\x2data\x2d1.0\x2dpart2.device</text>
  <rect class="activating" x="175.916" y="1240.000" width="0.000" height="19.000" />
  <rect class="active" x="175.916" y="1240.000" width="523.796" height="19.000" />
  <rect class="deactivating" x="699.712" y="1240.000" width="0.000" height="19.000" />
  <text class="left" x="180.916" y="1254.000">dev-disk-by\x2did-ata\x2dVBOX_HARDDISK_VB3695c8db\x2df8569cee\x2dpart2.device</text>
  <rect class="activating" x="175.917" y="1260.000" width="0.000" height="19.000" />
  <rect class="active" x="175.917" y="1260.000" width="523.795" height="19.000" />
  <rect class="deactivating" x="699.712" y="1260.000" width="0.000" height="19.000" />
  <text class="left" x="180.917" y="1274.000">dev-disk-by\x2duuid-cbae09d4\x2d00d6\x2d44d2\x2d81cc\x2d1fb16d803bbc.device</text>
  <rect class="activating" x="175.917" y="1280.000" width="0.000" height="19.000" />
  <rect class="active" x="175.917" y="1280.000" width="523.795" height="19.000" />
  <rect class="deactivating" x="699.712" y="1280.000" width="0.000" height="19.000" />
  <text class="left" x="180.917" y="1294.000">dev-disk-by\x2dpath-pci\x2d0000:00:0d.0\x2data\x2d1\x2dpart2.device</text>
  <rect class="activating" x="175.917" y="1300.000" width="0.000" height="19.000" />
  <rect class="active" x="175.917" y="1300.000" width="523.795" height="19.000" />
  <rect class="deactivating" x="699.712" y="1300.000" width="0.000" height="19.000" />
  <text class="left" x="180.917" y="1314.000">dev-disk-by\x2dpartuuid-3a661bcf\x2d6a3f\x2d4493\x2d844c\x2ddedebc822c59.device</text>
  <rect class="activating" x="175.917" y="1320.000" width="0.000" height="19.000" />
  <rect class="active" x="175.917" y="1320.000" width="523.795" height="19.000" />
  <rect class="deactivating" x="699.712" y="1320.000" width="0.000" height="19.000" />
  <text class="left" x="180.917" y="1334.000">sys-devices-pci0000:00-0000:00:0d.0-ata3-host2-target2:0:0-2:0:0:0-block-sda-sda2.device</text>
  <rect class="activating" x="178.377" y="1340.000" width="0.000" height="19.000" />
  <rect class="active" x="178.377" y="1340.000" width="521.335" height="19.000" />
  <rect class="deactivating" x="699.712" y="1340.000" width="0.000" height="19.000" />
  <text class="left" x="183.377" y="1354.000">dev-disk-by\x2dpartuuid-a425f96f\x2d781f\x2d4e10\x2dad85\x2d69d3ade3690b.device</text>
  <rect class="activating" x="178.378" y="1360.000" width="0.000" height="19.000" />
  <rect class="active" x="178.378" y="1360.000" width="521.334" height="19.000" />
  <rect class="deactivating" x="699.712" y="1360.000" width="0.000" height="19.000" />
  <text class="left" x="183.378" y="1374.000">dev-disk-by\x2did-ata\x2dVBOX_HARDDISK_VB3695c8db\x2df8569cee\x2dpart1.device</text>
  <rect class="activating" x="178.378" y="1380.000" width="0.000" height="19.000" />
  <rect class="active" x="178.378" y="1380.000" width="521.334" height="19.000" />
  <rect class="deactivating" x="699.712" y="1380.000" width="0.000" height="19.000" />
  <text class="left" x="183.378" y="1394.000">dev-disk-by\x2dpath-pci\x2d0000:00:0d.0\x2data\x2d1\x2dpart1.device</text>
  <rect class="activating" x="178.379" y="1400.000" width="0.000" height="19.000" />
  <rect class="active" x="178.379" y="1400.000" width="521.333" height="19.000" />
  <rect class="deactivating" x="699.712" y="1400.000" width="0.000" height="19.000" />
  <text class="left" x="183.379" y="1414.000">dev-disk-by\x2duuid-FECA\x2dB120.device</text>
  <rect class="activating" x="178.640" y="1420.000" width="0.000" height="19.000" />
  <rect class="active" x="178.640" y="1420.000" width="521.072" height="19.000" />
  <rect class="deactivating" x="699.712" y="1420.000" width="0.000" height="19.000" />
  <text class="left" x="183.640" y="1434.000">dev-disk-by\x2dpath-pci\x2d0000:00:0d.0\x2data\x2d1.0\x2dpart1.device</text>
  <rect class="activating" x="178.640" y="1440.000" width="0.000" height="19.000" />
  <rect class="active" x="178.640" y="1440.000" width="521.072" height="19.000" />
  <rect class="deactivating" x="699.712" y="1440.000" width="0.000" height="19.000" />
  <text class="left" x="183.640" y="1454.000">dev-sda1.device</text>
  <rect class="activating" x="178.641" y="1460.000" width="0.000" height="19.000" />
  <rect class="active" x="178.641" y="1460.000" width="521.071" height="19.000" />
  <rect class="deactivating" x="699.712" y="1460.000" width="0.000" height="19.000" />
  <text class="left" x="183.641" y="1474.000">sys-devices-pci0000:00-0000:00:0d.0-ata3-host2-target2:0:0-2:0:0:0-block-sda-sda1.device</text>
  <rect class="activating" x="178.740" y="1480.000" width="5.359" height="19.000" />
  <rect class="active" x="184.098" y="1480.000" width="515.614" height="19.000" />
  <rect class="deactivating" x="699.712" y="1480.000" width="0.000" height="19.000" />
  <text class="left" x="183.740" y="1494.000">systemd-fsck@dev-disk-by\x2duuid-FECA\x2dB120.service (53ms)</text>
  <rect class="activating" x="179.247" y="1500.000" width="0.000" height="19.000" />
  <rect class="active" x="179.247" y="1500.000" width="520.465" height="19.000" />
  <rect class="deactivating" x="699.712" y="1500.000" width="0.000" height="19.000" />
  <text class="left" x="184.247" y="1514.000">systemd-fsckd.service</text>
  <rect class="activating" x="179.550" y="1520.000" width="0.000" height="19.000" />
  <rect class="active" x="179.550" y="1520.000" width="520.162" height="19.000" />
  <rect class="deactivating" x="699.712" y="1520.000" width="0.000" height="19.000" />
  <text class="left" x="184.550" y="1534.000">dev-disk-by\x2dlabel-VBox_GAs_7.0.4.device</text>
  <rect class="activating" x="179.550" y="1540.000" width="0.000" height="19.000" />
  <rect class="active" x="179.550" y="1540.000" width="520.162" height="19.000" />
  <rect class="deactivating" x="699.712" y="1540.000" width="0.000" height="19.000" />
  <text class="left" x="184.550" y="1554.000">dev-disk-by\x2did-ata\x2dVBOX_CD\x2dROM_VB2\x2d01700376.device</text>
  <rect class="activating" x="179.551" y="1560.000" width="0.000" height="19.000" />
  <rect class="active" x="179.551" y="1560.000" width="520.161" height="19.000" />
  <rect class="deactivating" x="699.712" y="1560.000" width="0.000" height="19.000" />
  <text class="left" x="184.551" y="1574.000">dev-disk-by\x2dpath-pci\x2d0000:00:01.1\x2data\x2d2.device</text>
  <rect class="activating" x="179.551" y="1580.000" width="0.000" height="19.000" />
  <rect class="active" x="179.551" y="1580.000" width="520.161" height="19.000" />
  <rect class="deactivating" x="699.712" y="1580.000" width="0.000" height="19.000" />
  <text class="left" x="184.551" y="1594.000">dev-disk-by\x2duuid-2022\x2d11\x2d16\x2d17\x2d05\x2d17\x2d10.device</text>
  <rect class="activating" x="179.551" y="1600.000" width="0.000" height="19.000" />
  <rect class="active" x="179.551" y="1600.000" width="520.161" height="19.000" />
  <rect class="deactivating" x="699.712" y="1600.000" width="0.000" height="19.000" />
  <text class="left" x="184.551" y="1614.000">dev-disk-by\x2dpath-pci\x2d0000:00:01.1\x2data\x2d2.0.device</text>
  <rect class="activating" x="179.551" y="1620.000" width="0.000" height="19.000" />
  <rect class="active" x="179.551" y="1620.000" width="520.161" height="19.000" />
  <rect class="deactivating" x="699.712" y="1620.000" width="0.000" height="19.000" />
  <text class="left" x="184.551" y="1634.000">dev-dvd.device</text>
  <rect class="activating" x="179.552" y="1640.000" width="0.000" height="19.000" />
  <rect class="active" x="179.552" y="1640.000" width="520.160" height="19.000" />
  <rect class="deactivating" x="699.712" y="1640.000" width="0.000" height="19.000" />
  <text class="left" x="184.552" y="1654.000">dev-cdrom.device</text>
  <rect class="activating" x="179.552" y="1660.000" width="0.000" height="19.000" />
  <rect class="active" x="179.552" y="1660.000" width="520.160" height="19.000" />
  <rect class="deactivating" x="699.712" y="1660.000" width="0.000" height="19.000" />
  <text class="left" x="184.552" y="1674.000">dev-sr0.device</text>
  <rect class="activating" x="179.552" y="1680.000" width="0.000" height="19.000" />
  <rect class="active" x="179.552" y="1680.000" width="520.160" height="19.000" />
  <rect class="deactivating" x="699.712" y="1680.000" width="0.000" height="19.000" />
  <text class="left" x="184.552" y="1694.000">sys-devices-pci0000:00-0000:00:01.1-ata2-host1-target1:0:0-1:0:0:0-block-sr0.device</text>
  <rect class="activating" x="184.357" y="1700.000" width="9.059" height="19.000" />
  <rect class="active" x="193.415" y="1700.000" width="506.297" height="19.000" />
  <rect class="deactivating" x="699.712" y="1700.000" width="0.000" height="19.000" />
  <text class="left" x="189.357" y="1714.000">boot-efi.mount (90ms)</text>
  <rect class="activating" x="185.862" y="1720.000" width="0.000" height="19.000" />
  <rect class="active" x="185.862" y="1720.000" width="513.850" height="19.000" />
  <rect class="deactivating" x="699.712" y="1720.000" width="0.000" height="19.000" />
  <text class="left" x="190.862" y="1734.000">dev-ttyS0.device</text>
  <rect class="activating" x="185.863" y="1740.000" width="0.000" height="19.000" />
  <rect class="active" x="185.863" y="1740.000" width="513.849" height="19.000" />
  <rect class="deactivating" x="699.712" y="1740.000" width="0.000" height="19.000" />
  <text class="left" x="190.863" y="1754.000">sys-devices-platform-serial8250-tty-ttyS0.device</text>
  <rect class="activating" x="185.968" y="1760.000" width="0.000" height="19.000" />
  <rect class="active" x="185.968" y="1760.000" width="513.744" height="19.000" />
  <rect class="deactivating" x="699.712" y="1760.000" width="0.000" height="19.000" />
  <text class="left" x="190.968" y="1774.000">dev-ttyS1.device</text>
  <rect class="activating" x="185.969" y="1780.000" width="0.000" height="19.000" />
  <rect class="active" x="185.969" y="1780.000" width="513.743" height="19.000" />
  <rect class="deactivating" x="699.712" y="1780.000" width="0.000" height="19.000" />
  <text class="left" x="190.969" y="1794.000">sys-devices-platform-serial8250-tty-ttyS1.device</text>
  <rect class="activating" x="186.082" y="1800.000" width="0.000" height="19.000" />
  <rect class="active" x="186.082" y="1800.000" width="513.630" height="19.000" />
  <rect class="deactivating" x="699.712" y="1800.000" width="0.000" height="19.000" />
  <text class="left" x="191.082" y="1814.000">dev-ttyS2.device</text>
  <rect class="activating" x="186.082" y="1820.000" width="0.000" height="19.000" />
  <rect class="active" x="186.082" y="1820.000" width="513.630" height="19.000" />
  <rect class="deactivating" x="699.712" y="1820.000" width="0.000" height="19.000" />
  <text class="left" x="191.082" y="1834.000">sys-devices-platform-serial8250-tty-ttyS2.device</text>
  <rect class="activating" x="186.237" y="1840.000" width="0.000" height="19.000" />
  <rect class="active" x="186.237" y="1840.000" width="513.475" height="19.000" />
  <rect class="deactivating" x="699.712" y="1840.000" width="0.000" height="19.000" />
  <text class="left" x="191.237" y="1854.000">dev-ttyS3.device</text>
  <rect class="activating" x="186.238" y="1860.000" width="0.000" height="19.000" />
  <rect class="active" x="186.238" y="1860.000" width="513.474" height="19.000" />
  <rect class="deactivating" x="699.712" y="1860.000" width="0.000" height="19.000" />
  <text class="left" x="191.238" y="1874.000">sys-devices-platform-serial8250-tty-ttyS3.device</text>
  <rect class="activating" x="193.426" y="1880.000" width="0.000" height="19.000" />
  <rect class="active" x="193.426" y="1880.000" width="506.286" height="19.000" />
  <rect class="deactivating" x="699.712" y="1880.000" width="0.000" height="19.000" />
  <text class="left" x="198.426" y="1894.000">local-fs.target</text>
  <rect class="activating" x="193.510" y="1900.000" width="3.075" height="19.000" />
  <rect class="active" x="196.586" y="1900.000" width="503.126" height="19.000" />
  <rect class="deactivating" x="699.712" y="1900.000" width="0.000" height="19.000" />
  <text class="left" x="198.510" y="1914.000">apparmor.service (30ms)</text>
  <rect class="activating" x="193.631" y="1920.000" width="0.434" height="19.000" />
  <rect class="active" x="194.066" y="1920.000" width="505.646" height="19.000" />
  <rect class="deactivating" x="699.712" y="1920.000" width="0.000" height="19.000" />
  <text class="left" x="198.631" y="1934.000">console-setup.service (4ms)</text>
  <rect class="activating" x="193.764" y="1940.000" width="33.441" height="19.000" />
  <rect class="active" x="227.205" y="1940.000" width="472.507" height="19.000" />
  <rect class="deactivating" x="699.712" y="1940.000" width="0.000" height="19.000" />
  <text class="left" x="198.764" y="1954.000">netfilter-persistent.service (334ms)</text>
  <rect class="activating" x="193.867" y="1960.000" width="1.300" height="19.000" />
  <rect class="active" x="195.167" y="1960.000" width="504.545" height="19.000" />
  <rect class="deactivating" x="699.712" y="1960.000" width="0.000" height="19.000" />
  <text class="left" x="198.867" y="1974.000">systemd-tmpfiles-setup.service (13ms)</text>
  <rect class="activating" x="195.261" y="1980.000" width="0.702" height="19.000" />
  <rect class="active" x="195.963" y="1980.000" width="503.749" height="19.000" />
  <rect class="deactivating" x="699.712" y="1980.000" width="0.000" height="19.000" />
  <text class="left" x="200.261" y="1994.000">systemd-update-utmp.service (7ms)</text>
  <rect class="activating" x="196.661" y="2000.000" width="0.000" height="19.000" />
  <rect class="active" x="196.661" y="2000.000" width="503.051" height="19.000" />
  <rect class="deactivating" x="699.712" y="2000.000" width="0.000" height="19.000" />
  <text class="left" x="201.661" y="2014.000">sysinit.target</text>
  <rect class="activating" x="196.738" y="2020.000" width="0.000" height="19.000" />
  <rect class="active" x="196.738" y="2020.000" width="502.974" height="19.000" />
  <rect class="deactivating" x="699.712" y="2020.000" width="0.000" height="19.000" />
  <text class="left" x="201.738" y="2034.000">anacron.timer</text>
  <rect class="activating" x="196.790" y="2040.000" width="0.000" height="19.000" />
  <rect class="active" x="196.790" y="2040.000" width="502.922" height="19.000" />
  <rect class="deactivating" x="699.712" y="2040.000" width="0.000" height="19.000" />
  <text class="left" x="201.790" y="2054.000">apt-daily.timer</text>
  <rect class="activating" x="196.837" y="2060.000" width="0.000" height="19.000" />
  <rect class="active" x="196.837" y="2060.000" width="502.875" height="19.000" />
  <rect class="deactivating" x="699.712" y="2060.000" width="0.000" height="19.000" />
  <text class="left" x="201.837" y="2074.000">apt-daily-upgrade.timer</text>
  <rect class="activating" x="196.888" y="2080.000" width="0.000" height="19.000" />
  <rect class="active" x="196.888" y="2080.000" width="502.824" height="19.000" />
  <rect class="deactivating" x="699.712" y="2080.000" width="0.000" height="19.000" />
  <text class="left" x="201.888" y="2094.000">e2scrub_all.timer</text>
  <rect class="activating" x="196.936" y="2100.000" width="0.000" height="19.000" />
  <rect class="active" x="196.936" y="2100.000" width="502.776" height="19.000" />
  <rect class="deactivating" x="699.712" y="2100.000" width="0.000" height="19.000" />
  <text class="left" x="201.936" y="2114.000">logrotate.timer</text>
  <rect class="activating" x="196.983" y="2120.000" width="0.000" height="19.000" />
  <rect class="active" x="196.983" y="2120.000" width="502.729" height="19.000" />
  <rect class="deactivating" x="699.712" y="2120.000" width="0.000" height="19.000" />
  <text class="left" x="201.983" y="2134.000">man-db.timer</text>
  <rect class="activating" x="197.033" y="2140.000" width="0.000" height="19.000" />
  <rect class="active" x="197.033" y="2140.000" width="502.679" height="19.000" />
  <rect class="deactivating" x="699.712" y="2140.000" width="0.000" height="19.000" />
  <text class="left" x="202.033" y="2154.000">systemd-tmpfiles-clean.timer</text>
  <rect class="activating" x="197.078" y="2160.000" width="0.000" height="19.000" />
  <rect class="active" x="197.078" y="2160.000" width="502.634" height="19.000" />
  <rect class="deactivating" x="699.712" y="2160.000" width="0.000" height="19.000" />
  <text class="left" x="202.078" y="2174.000">timers.target</text>
  <rect class="activating" x="197.128" y="2180.000" width="0.000" height="19.000" />
  <rect class="active" x="197.128" y="2180.000" width="502.584" height="19.000" />
  <rect class="deactivating" x="699.712" y="2180.000" width="0.000" height="19.000" />
  <text class="left" x="202.128" y="2194.000">dbus.socket</text>
  <rect class="activating" x="197.171" y="2200.000" width="0.000" height="19.000" />
  <rect class="active" x="197.171" y="2200.000" width="502.541" height="19.000" />
  <rect class="deactivating" x="699.712" y="2200.000" width="0.000" height="19.000" />
  <text class="left" x="202.171" y="2214.000">sockets.target</text>
  <rect class="activating" x="197.213" y="2220.000" width="0.000" height="19.000" />
  <rect class="active" x="197.213" y="2220.000" width="502.499" height="19.000" />
  <rect class="deactivating" x="699.712" y="2220.000" width="0.000" height="19.000" />
  <text class="left" x="202.213" y="2234.000">basic.target</text>
  <rect class="activating" x="197.367" y="2240.000" width="0.000" height="19.000" />
  <rect class="active" x="197.367" y="2240.000" width="2.038" height="19.000" />
  <rect class="deactivating" x="199.405" y="2240.000" width="0.000" height="19.000" />
  <text class="left" x="202.367" y="2254.000">anacron.service</text>
  <rect class="activating" x="197.494" y="2260.000" width="501.251" height="19.000" />
  <rect class="active" x="698.745" y="2260.000" width="0.967" height="19.000" />
  <rect class="deactivating" x="699.712" y="2260.000" width="0.000" height="19.000" />
  <text class="left" x="202.494" y="2274.000">another.service (5.012s)</text>
  <rect class="activating" x="197.724" y="2280.000" width="0.000" height="19.000" />
  <rect class="active" x="197.724" y="2280.000" width="501.988" height="19.000" />
  <rect class="deactivating" x="699.712" y="2280.000" width="0.000" height="19.000" />
  <text class="left" x="202.724" y="2294.000">cron.service</text>
  <rect class="activating" x="197.877" y="2300.000" width="0.000" height="19.000" />
  <rect class="active" x="197.877" y="2300.000" width="501.835" height="19.000" />
  <rect class="deactivating" x="699.712" y="2300.000" width="0.000" height="19.000" />
  <text class="left" x="202.877" y="2314.000">dbus.service</text>
  <rect class="activating" x="198.377" y="2320.000" width="4.903" height="19.000" />
  <rect class="active" x="203.279" y="2320.000" width="0.000" height="19.000" />
  <rect class="deactivating" x="203.279" y="2320.000" width="0.000" height="19.000" />
  <text class="left" x="203.377" y="2334.000">e2scrub_reap.service (49ms)</text>
  <rect class="activating" x="198.643" y="2340.000" width="1.057" height="19.000" />
  <rect class="active" x="199.700" y="2340.000" width="500.012" height="19.000" />
  <rect class="deactivating" x="699.712" y="2340.000" width="0.000" height="19.000" />
  <text class="left" x="203.643" y="2354.000">rsyslog.service (10ms)</text>
  <rect class="activating" x="198.759" y="2360.000" width="300.453" height="19.000" />
  <rect class="active" x="499.212" y="2360.000" width="200.500" height="19.000" />
  <rect class="deactivating" x="699.712" y="2360.000" width="0.000" height="19.000" />
  <text class="left" x="203.759" y="2374.000">sdnotest.service (3.004s)</text>
  <rect class="activating" x="199.095" y="2380.000" width="6.542" height="19.000" />
  <rect class="active" x="205.637" y="2380.000" width="494.075" height="19.000" />
  <rect class="deactivating" x="699.712" y="2380.000" width="0.000" height="19.000" />
  <text class="left" x="204.095" y="2394.000">systemd-logind.service (65ms)</text>
  <rect class="activating" x="199.253" y="2400.000" width="48.370" height="19.000" />
  <rect class="active" x="247.624" y="2400.000" width="452.088" height="19.000" />
  <rect class="deactivating" x="699.712" y="2400.000" width="0.000" height="19.000" />
  <text class="left" x="204.253" y="2414.000">vboxadd.service (483ms)</text>
  <rect class="activating" x="222.023" y="2420.000" width="0.000" height="19.000" />
  <rect class="active" x="222.023" y="2420.000" width="477.689" height="19.000" />
  <rect class="deactivating" x="699.712" y="2420.000" width="0.000" height="19.000" />
  <text class="left" x="227.023" y="2434.000">dev-snd-by\x2dpath-pci\x2d0000:00:05.0.device</text>
  <rect class="activating" x="222.024" y="2440.000" width="0.000" height="19.000" />
  <rect class="active" x="222.024" y="2440.000" width="477.688" height="19.000" />
  <rect class="deactivating" x="699.712" y="2440.000" width="0.000" height="19.000" />
  <text class="left" x="227.024" y="2454.000">dev-snd-controlC0.device</text>
  <rect class="activating" x="222.024" y="2460.000" width="0.000" height="19.000" />
  <rect class="active" x="222.024" y="2460.000" width="477.688" height="19.000" />
  <rect class="deactivating" x="699.712" y="2460.000" width="0.000" height="19.000" />
  <text class="left" x="227.024" y="2474.000">sys-devices-pci0000:00-0000:00:05.0-sound-card0-controlC0.device</text>
  <rect class="activating" x="222.034" y="2480.000" width="0.000" height="19.000" />
  <rect class="active" x="222.034" y="2480.000" width="477.678" height="19.000" />
  <rect class="deactivating" x="699.712" y="2480.000" width="0.000" height="19.000" />
  <text class="left" x="227.034" y="2494.000">sound.target</text>
  <rect class="activating" x="227.292" y="2500.000" width="0.000" height="19.000" />
  <rect class="active" x="227.292" y="2500.000" width="472.420" height="19.000" />
  <rect class="deactivating" x="699.712" y="2500.000" width="0.000" height="19.000" />
  <text class="left" x="232.292" y="2514.000">network-pre.target</text>
  <rect class="activating" x="227.437" y="2520.000" width="0.000" height="19.000" />
  <rect class="active" x="227.437" y="2520.000" width="472.275" height="19.000" />
  <rect class="deactivating" x="699.712" y="2520.000" width="0.000" height="19.000" />
  <text class="left" x="232.437" y="2534.000">ifup@enp0s3.service</text>
  <rect class="activating" x="227.577" y="2540.000" width="2.553" height="19.000" />
  <rect class="active" x="230.130" y="2540.000" width="469.582" height="19.000" />
  <rect class="deactivating" x="699.712" y="2540.000" width="0.000" height="19.000" />
  <text class="left" x="232.577" y="2554.000">networking.service (25ms)</text>
  <rect class="activating" x="230.196" y="2560.000" width="0.000" height="19.000" />
  <rect class="active" x="230.196" y="2560.000" width="469.516" height="19.000" />
  <rect class="deactivating" x="699.712" y="2560.000" width="0.000" height="19.000" />
  <text class="left" x="235.196" y="2574.000">network.target</text>
  <rect class="activating" x="230.362" y="2580.000" width="3.280" height="19.000" />
  <rect class="active" x="233.642" y="2580.000" width="466.070" height="19.000" />
  <rect class="deactivating" x="699.712" y="2580.000" width="0.000" height="19.000" />
  <text class="left" x="235.362" y="2594.000">ssh.service (32ms)</text>
  <rect class="activating" x="230.473" y="2600.000" width="0.403" height="19.000" />
  <rect class="active" x="230.876" y="2600.000" width="468.836" height="19.000" />
  <rect class="deactivating" x="699.712" y="2600.000" width="0.000" height="19.000" />
  <text class="left" x="235.473" y="2614.000">systemd-user-sessions.service (4ms)</text>
  <rect class="activating" x="231.002" y="2620.000" width="0.000" height="19.000" />
  <rect class="active" x="231.002" y="2620.000" width="468.710" height="19.000" />
  <rect class="deactivating" x="699.712" y="2620.000" width="0.000" height="19.000" />
  <text class="left" x="236.002" y="2634.000">getty@tty1.service</text>
  <rect class="activating" x="231.055" y="2640.000" width="0.000" height="19.000" />
  <rect class="active" x="231.055" y="2640.000" width="468.657" height="19.000" />
  <rect class="deactivating" x="699.712" y="2640.000" width="0.000" height="19.000" />
  <text class="left" x="236.055" y="2654.000">getty.target</text>
  <rect class="activating" x="247.749" y="2660.000" width="2.215" height="19.000" />
  <rect class="active" x="249.965" y="2660.000" width="449.747" height="19.000" />
  <rect class="deactivating" x="699.712" y="2660.000" width="0.000" height="19.000" />
  <text class="left" x="252.749" y="2674.000">vboxadd-service.service (22ms)</text>
  <rect class="activating" x="251.232" y="2680.000" width="0.000" height="19.000" />
  <rect class="active" x="251.232" y="2680.000" width="448.480" height="19.000" />
  <rect class="deactivating" x="699.712" y="2680.000" width="0.000" height="19.000" />
  <text class="left" x="256.232" y="2694.000">j.mount</text>
  <rect class="activating" x="315.856" y="2700.000" width="0.000" height="19.000" />
  <rect class="active" x="315.856" y="2700.000" width="383.856" height="19.000" />
  <rect class="deactivating" x="699.712" y="2700.000" width="0.000" height="19.000" />
  <text class="left" x="320.856" y="2714.000">user-0.slice</text>
  <rect class="activating" x="315.972" y="2720.000" width="0.676" height="19.000" />
  <rect class="active" x="316.648" y="2720.000" width="383.064" height="19.000" />
  <rect class="deactivating" x="699.712" y="2720.000" width="0.000" height="19.000" />
  <text class="left" x="320.972" y="2734.000">user-runtime-dir@0.service (6ms)</text>
  <rect class="activating" x="316.614" y="2740.000" width="0.000" height="19.000" />
  <rect class="active" x="316.614" y="2740.000" width="383.098" height="19.000" />
  <rect class="deactivating" x="699.712" y="2740.000" width="0.000" height="19.000" />
  <text class="left" x="321.614" y="2754.000">run-user-0.mount</text>
  <rect class="activating" x="316.795" y="2760.000" width="3.878" height="19.000" />
  <rect class="active" x="320.673" y="2760.000" width="379.039" height="19.000" />
  <rect class="deactivating" x="699.712" y="2760.000" width="0.000" height="19.000" />
  <text class="left" x="321.795" y="2774.000">user@0.service (38ms)</text>
  <rect class="activating" x="320.769" y="2780.000" width="0.000" height="19.000" />
  <rect class="active" x="320.769" y="2780.000" width="378.943" height="19.000" />
  <rect class="deactivating" x="699.712" y="2780.000" width="0.000" height="19.000" />
  <text class="left" x="325.769" y="2794.000">session-1.scope</text>
  <rect class="activating" x="499.354" y="2800.000" width="0.000" height="19.000" />
  <rect class="active" x="499.354" y="2800.000" width="200.358" height="19.000" />
  <rect class="deactivating" x="699.712" y="2800.000" width="0.000" height="19.000" />
  <text class="right" x="494.354" y="2814.000">sdnotest-dependant.service</text>
  <rect class="activating" x="698.938" y="2820.000" width="0.000" height="19.000" />
  <rect class="active" x="698.938" y="2820.000" width="0.774" height="19.000" />
  <rect class="deactivating" x="699.712" y="2820.000" width="0.000" height="19.000" />
  <text class="right" x="693.938" y="2834.000">another-dependant.service</text>
  <rect class="activating" x="699.002" y="2840.000" width="0.000" height="19.000" />
  <rect class="active" x="699.002" y="2840.000" width="0.710" height="19.000" />
  <rect class="deactivating" x="699.712" y="2840.000" width="0.000" height="19.000" />
  <text class="right" x="694.002" y="2854.000">multi-user.target</text>
  <rect class="activating" x="699.056" y="2860.000" width="0.000" height="19.000" />
  <rect class="active" x="699.056" y="2860.000" width="0.656" height="19.000" />
  <rect class="deactivating" x="699.712" y="2860.000" width="0.000" height="19.000" />
  <text class="right" x="694.056" y="2874.000">graphical.target</text>
  <rect class="activating" x="699.168" y="2880.000" width="0.485" height="19.000" />
  <rect class="active" x="699.653" y="2880.000" width="0.000" height="19.000" />
  <rect class="deactivating" x="699.653" y="2880.000" width="0.000" height="19.000" />
  <text class="right" x="694.168" y="2894.000">systemd-update-utmp-runlevel.service (4ms)</text>
</g>
<g transform="translate(20,100)">
  <rect class="activating" x="0.000" y="2920.000" width="30.000" height="19.000" />
  <text class="left" x="45.000" y="2934.000">Activating</text>
  <rect class="active" x="0.000" y="2940.000" width="30.000" height="19.000" />
  <text class="left" x="45.000" y="2954.000">Active</text>
  <rect class="deactivating" x="0.000" y="2960.000" width="30.000" height="19.000" />
  <text class="left" x="45.000" y="2974.000">Deactivating</text>
  <rect class="security" x="0.000" y="2980.000" width="30.000" height="19.000" />
  <text class="left" x="45.000" y="2994.000">Setting up security module</text>
  <rect class="generators" x="0.000" y="3000.000" width="30.000" height="19.000" />
  <text class="left" x="45.000" y="3014.000">Generators</text>
  <rect class="unitsload" x="0.000" y="3020.000" width="30.000" height="19.000" />
  <text class="left" x="45.000" y="3034.000">Loading unit files</text>
</g>

</svg>
